Subject;Group;EMO_Neg;EMO_Pos;NEU_Neg;NEU_Pos
AC06;HOA;2;2.45454545454545;2.25;1.81818181818182
BC05;HOA;4.66666666666667;5.16666666666667;4.4;5.375
BL40;HOA;4.42857142857143;5;4;5.8
BM39;HOA;2.8125;2.75;2.58333333333333;1.58333333333333
CC41;HOA;2.33333333333333;2;3;2.4
DA02;HOA;2.15384615384615;2.5;3.375;2.4
GM14;HOA;2.6;1.875;3.14285714285714;2.83333333333333
KB10;HOA;1.5;2.30769230769231;1.9;2.18181818181818
MC07;HOA;3.16666666666667;2.66666666666667;2.85714285714286;2.77777777777778
MJ38;HOA;1.6;1.66666666666667;1.6;2.33333333333333
MS03;HOA;2;2.4;3.09090909090909;2.5
RC01;HOA;3.33333333333333;2.125;2.875;2.6
RP02;HOA;2.53846153846154;2.5;2.22222222222222;2.5
TP37;HOA;1.52941176470588;2.13333333333333;1.92857142857143;2.0625
VM09;HOA;5.44444444444444;5.77777777777778;4.92857142857143;5.90909090909091
CS21;YA;1.90909090909091;2.33333333333333;1.66666666666667;1.53846153846154
CS32;YA;2.18181818181818;2.5;3.33333333333333;3.33333333333333
DE25;YA;1.61538461538462;1.7;2;2.08333333333333
DL36;YA;1.75;1.92307692307692;1.33333333333333;2.0625
DM31;YA;2.06666666666667;2.53333333333333;1.88888888888889;2.5
FH20;YA;2.13333333333333;2.11764705882353;2;1.82352941176471
GI30;YA;1.76923076923077;2.06666666666667;1.27272727272727;1.64285714285714
GS23;YA;2.17647058823529;1.9375;1.4;2.14285714285714
LA29;YA;1.69230769230769;1.92307692307692;2.07142857142857;2
LD13;YA;1.77777777777778;2.63636363636364;1.71428571428571;2
MC11;YA;2.22222222222222;2.07142857142857;3.57142857142857;1.91666666666667
NN34;YA;1.5;2.25;2.42857142857143;2.11111111111111
PB16;YA;2;2.53333333333333;2.33333333333333;2.69230769230769
PC33;YA;2;1.90909090909091;2;2.23076923076923
RA15;YA;3.14285714285714;2.55555555555556;2.41176470588235;2.375
RM35;YA;1;1.23076923076923;1.53333333333333;1.35714285714286
SH27;YA;1.92307692307692;2.07142857142857;2.78571428571429;2.35714285714286
SM17;YA;2.1;2.5;2.22222222222222;2.35714285714286
VK12;YA;2;1.77777777777778;1;1.5
